{
  "cmdLine": "'/cvmfs/atlas.cern.ch/repo/sw/software/23.0/Athena/23.0.3/InstallArea/x86_64-centos7-gcc11-opt/share/Reco_tf.py' '--multithreaded=True' '--conditionsTag' 'all:CONDBR2-BLKPA-RUN2-09' '--autoConfiguration=everything' '--maxEvents=12' '--geometryVersion' 'all:ATLAS-R2-2016-01-00-01' '--steering=doRAWtoALL' '--preExec=all:rec.doTrigger=False' '--postExec=svcMgr.DBReplicaSvc.COOLSQLiteVetoPattern=\\'\\'' '--inputBSFile=/cvmfs/atlas-nightlies.cern.ch/repo/data/data-art/Tier0ChainTests/data17_13TeV.00330470.physics_Main.daq.RAW._lb0310._SFO-1._0001.data' '--outputAODFile=myAOD.pool.root' '--outputHISTFile=hist.pool.root' '--DBRelease=400.2.442'",
  "created": "2022-11-03T17:50:27",
  "executor": [
    {
      "asetup": null,
      "errMsg": "",
      "exeConfig": {
        "inputs": [
          "BS"
        ],
        "outputs": [
          "HIST_R2A",
          "AOD"
        ],
        "script": "athena.py",
        "substep": "r2a"
      },
      "logfileReport": {
        "countSummary": {
          "CATASTROPHE": 0,
          "CRITICAL": 0,
          "DEBUG": 0,
          "ERROR": 0,
          "FATAL": 0,
          "IGNORED": 0,
          "INFO": 15685,
          "UNKNOWN": 4013,
          "VERBOSE": 0,
          "WARNING": 100
        },
        "details": {}
      },
      "metaData": {},
      "name": "RAWtoALL",
      "rc": 0,
      "statusOK": true,
      "validation": true
    },
    {
      "errMsg": "",
      "exeConfig": {
        "script": "DQHistogramMerge.py"
      },
      "name": "DQHistogramMerge",
      "rc": 0,
      "statusOK": true,
      "validation": true
    }
  ],
  "exitAcronym": "OK",
  "exitCode": 0,
  "exitMsg": "OK",
  "exitMsgExtra": "",
  "files": {
    "input": [
      {
        "dataset": null,
        "nentries": 1571,
        "subFiles": [
          {
            "file_guid": "3CEAA5DB-2170-E711-A545-44A8420A7771",
            "name": "data17_13TeV.00330470.physics_Main.daq.RAW._lb0310._SFO-1._0001.data"
          }
        ],
        "type": "BS"
      }
    ],
    "output": [
      {
        "argName": "outputAODFile",
        "dataset": null,
        "subFiles": [
          {
            "file_guid": "F26225D5-B571-8344-8332-A57B348C4D4B",
            "file_size": 1878772,
            "name": "myAOD.pool.root",
            "nentries": 12
          }
        ],
        "type": "AOD"
      },
      {
        "argName": "outputHISTFile",
        "dataset": null,
        "subFiles": [
          {
            "file_guid": "6D3268B6-6743-4EEB-8247-F3D7DF636AFC",
            "file_size": 30190612,
            "name": "hist.pool.root",
            "nentries": 12
          }
        ],
        "type": "HIST"
      }
    ]
  },
  "name": "Reco_tf",
  "reportVersion": "2.1.2",
  "resource": {
    "executor": {
      "DQHistogramMerge": {
        "cpuTime": 13.4,
        "memory": {
          "Avg": {
            "nprocs": 1.0,
            "nthreads": 1.0,
            "pss": 5405.0,
            "rchar": 4316125.0,
            "read_bytes": 96563200.0,
            "rss": 6236.0,
            "rx_bytes": 0.0,
            "rx_packets": 0.0,
            "swap": 0.0,
            "tx_bytes": 0.0,
            "tx_packets": 0.0,
            "vmem": 24832.0,
            "wchar": 0.0,
            "write_bytes": 0.0
          },
          "HW": {
            "cpu": {
              "CPUs": 4,
              "CoresPerSocket": 1,
              "ModelName": "Intel Xeon Processor (Skylake, IBRS)",
              "Sockets": 4,
              "ThreadsPerCore": 1
            },
            "mem": {
              "MemTotal": 7310232
            }
          },
          "Max": {
            "nprocs": 1,
            "nthreads": 1,
            "pss": 5405,
            "rchar": 172645,
            "read_bytes": 3862528,
            "rss": 6236,
            "rx_bytes": 0,
            "rx_packets": 0,
            "stime": 0,
            "swap": 0,
            "tx_bytes": 0,
            "tx_packets": 0,
            "utime": 0,
            "vmem": 24832,
            "wchar": 0,
            "write_bytes": 0,
            "wtime": 4
          },
          "prmon": {
            "Version": "3.0.1"
          }
        },
        "postExe": {
          "cpuTime": 0.04,
          "wallTime": 1.0
        },
        "preExe": {
          "cpuTime": 0.14,
          "wallTime": 0.16
        },
        "total": {
          "cpuTime": 13.72,
          "wallTime": 35.23
        },
        "validation": {
          "cpuTime": 0.14,
          "wallTime": 0.19
        },
        "wallTime": 33.88
      },
      "RAWtoALL": {
        "cpuTime": 319.44,
        "memory": {
          "Avg": {
            "nprocs": 2.0,
            "nthreads": 3.5380000000000003,
            "pss": 1648264.0,
            "rchar": 199934847.0,
            "read_bytes": 939638827.0,
            "rss": 1650372.0,
            "rx_bytes": 18.716,
            "rx_packets": 0.267,
            "swap": 0.0,
            "tx_bytes": 0.0,
            "tx_packets": 0.0,
            "vmem": 2300424.0,
            "wchar": 29132790.0,
            "write_bytes": 27827610.0
          },
          "HW": {
            "cpu": {
              "CPUs": 4,
              "CoresPerSocket": 1,
              "ModelName": "Intel Xeon Processor (Skylake, IBRS)",
              "Sockets": 4,
              "ThreadsPerCore": 1
            },
            "mem": {
              "MemTotal": 7310232
            }
          },
          "Max": {
            "nprocs": 2,
            "nthreads": 8,
            "pss": 4843397,
            "rchar": 747756330,
            "read_bytes": 3514249216,
            "rss": 4845600,
            "rx_bytes": 70,
            "rx_packets": 1,
            "stime": 14,
            "swap": 0,
            "tx_bytes": 0,
            "tx_packets": 0,
            "utime": 303,
            "vmem": 6056336,
            "wchar": 108956637,
            "write_bytes": 104075264,
            "wtime": 374
          },
          "prmon": {
            "Version": "3.0.1"
          }
        },
        "memoryAnalysis": {
          "chi2": 1734672.27,
          "slope": 6570.43
        },
        "nevents": 12,
        "postExe": {
          "cpuTime": 0.69,
          "wallTime": 1.05
        },
        "preExe": {
          "cpuTime": 0.0,
          "wallTime": 0.01
        },
        "total": {
          "cpuTime": 322.69,
          "wallTime": 425.18
        },
        "validation": {
          "cpuTime": 2.56,
          "wallTime": 33.69
        },
        "wallTime": 390.43
      }
    },
    "machine": {
      "cpu_family": "6",
      "linux_distribution": [
        "CentOS Linux",
        "7",
        "Core"
      ],
      "model": "85",
      "model_name": "Intel Xeon Processor (Skylake, IBRS)",
      "node": "6afdd99a97fa",
      "platform": "Linux-3.10.0-1160.76.1.el7.x86_64-x86_64-with-glibc2.17"
    },
    "transform": {
      "cpuEfficiency": 0.7283,
      "cpuPWEfficiency": 0.7283,
      "cpuTime": 6.42,
      "cpuTimeTotal": 336.41,
      "externalCpuTime": 3.62,
      "inFileValidation": {
        "cpuTime": 0.0,
        "wallTime": 0.54
      },
      "outFileValidation": {
        "cpuTime": 0.0,
        "wallTime": 0.61
      },
      "processedEvents": 12,
      "reportGeneration": {
        "cpuTime": 0.05,
        "wallTime": 4.13
      },
      "transformSetup": {
        "cpuTime": 0.0,
        "wallTime": 0.16
      },
      "trfPredata": null,
      "wallTime": 465.85
    }
  }
}