{
  "run_info": {
    "copies": 4,
    "threads_per_copy": 1,
    "events_per_thread": 6,
    "extra_arguments": ""
  },
  "report": {
    "wl-scores": {
      "sim": 147.2551,
      "gen-sim": 111.1391,
      "gen": 3301.6791
    },
    "wl-stats": {
      "sim": {
        "avg": 36.8138,
        "median": 36.8171,
        "min": 36.7742,
        "max": 36.8468,
        "count": 4
      },
      "gen-sim": {
        "avg": 27.7848,
        "median": 27.7616,
        "min": 27.752,
        "max": 27.8638,
        "count": 4
      },
      "gen": {
        "avg": 825.4198,
        "median": 830.3,
        "min": 801.0253,
        "max": 840.0538,
        "count": 4
      }
    },
    "log": "ok"
  },
  "app": {
    "version": "ci-v0.1",
    "description": "LHCb SIM-RUN3 x86/ARM benchmark (Feb 2023)",
    "cvmfs_checksum": "2f3c4de01feecb3276d91f7e04883aa9",
    "bmkdata_checksum": "0ec564fa2dca06535bf17771731312a5",
    "bmk_checksum": "95d6a1e4e35087bac602cbf3dbf6a859",
    "containment": "docker"
  }
}
